<?xml version="1.0" encoding="UTF-8"?>
<svg width="1px" height="3px" viewBox="0 0 1 3" version="1.1" xmlns="http://www.w3.org/2000/svg" xmlns:xlink="http://www.w3.org/1999/xlink">
    <!-- Generator: Sketch 41.1 (35376) - http://www.bohemiancoding.com/sketch -->
    <title>Line Copy</title>
    <desc>Created with Sketch.</desc>
    <defs></defs>
    <g id="Page-1" stroke="none" stroke-width="1" fill="none" fill-rule="evenodd" stroke-linecap="square">
        <path d="M0.5,0.5 L0.5,2.5" id="Line-Copy" stroke="#979797"></path>
    </g>
</svg>